{
    "error": false,
    "statusCode": 200,
    "message": "Success",
    "category": [
        {
            "id": 49,
            "categoryName": "Pet Care",
            "categoryImage": "https://gentlycarepyra2.s3.ap-south-1.amazonaws.com/9893543b-12da-4eb6-9dd3-fc5984090440OnceDaily28ctLARGE-SC-Front.png",
            "categoryDescription": "Lorem ipsum dolor sit amet, consectetuer adipiscing elit. Aenean commodo ligula eget dolor. Aenean massa. Cum sociis natoque penatibus et magnis dis parturient montes, nascetur ridiculus mus. Donec quam felis, ultricies nec, pellentesque eu, pretium quis, sem. Nulla consequat massa quis enim. Donec pede justo, fringilla vel, aliquet nec, vulputate eget, arcu. In enim justo, rhoncus ut, imperdiet a, venenatis vitae, justo. Nullam dictum felis eu pede mollis pretium. Integer tincidunt. Cras dapibu",
            "activeStatus": 1,
            "subcategory": [
                {
                    "id": 81,
                    "categoryId": 49,
                    "discount": 8.5,
                    "subCategoryName": "Dog care",
                    "subCategoryImage": "https://gentlycarepyra2.s3.ap-south-1.amazonaws.com/40fe8b5e-861e-4942-8da8-9e2893c34bd0PET-BOOSTER-1.png",
                    "subCategoryDescription": "Lorem ipsum dolor sit amet, consectetuer adipiscing elit. Aenean commodo ligula eget dolor. Aenean massa. Cum sociis natoque penatibus et magnis dis parturient montes, nascetur ridiculus mus. Donec quam felis, ultricies nec, pellentesque eu, pretium quis, sem. Nulla consequat massa quis enim. Donec pede justo, fringilla vel, aliquet nec, vulputate eget, arcu. In enim justo, rhoncus ut, imperdiet a, venenatis vitae, justo. Nullam dictum felis eu pede mollis pretium. Integer tincidunt. Cras dapibu",
                    "activeStatus": 1,
                    "products": [
                        {
                            "id": 128,
                            "productName": "Dog Nutritional Food complex",
                            "productImage": "https://gentlycarepyra2.s3.ap-south-1.amazonaws.com/fdc220e8-67d2-4ed7-83f4-2dea394a77ccMissing-Link-Senior.png",
                            "subcategoryId": 81,
                            "productCode": "41578",
                            "discount": 0
                        }
                    ]
                }
            ]
        },
        {
            "id": 44,
            "categoryName": "New category",
            "categoryImage": "https://gentlycarepyra2.s3.ap-south-1.amazonaws.com/60a8f636-16f0-41c8-ba38-9b0ca8b97f7bxss-adult-1-optimized.png",
            "categoryDescription": "description",
            "activeStatus": 1,
            "subcategory": [
                {
                    "id": 76,
                    "categoryId": 44,
                    "discount": 12.5,
                    "subCategoryName": "NEW Sub cat",
                    "subCategoryImage": "https://gentlycarepyra2.s3.ap-south-1.amazonaws.com/7e0323fc-4a4e-42d8-8203-bd55585b2865unnamed.png",
                    "subCategoryDescription": "Description is mandatory",
                    "activeStatus": 1,
                    "products": [
                        {
                            "id": 105,
                            "productName": "Acacia Dog Products",
                            "productImage": "https://gentlycarepyra2.s3.ap-south-1.amazonaws.com/96081566-6297-425f-b268-732a7b656196petdoors.png",
                            "subcategoryId": 76,
                            "productCode": "4569",
                            "discount": 0
                        },
                        {
                            "id": 106,
                            "productName": "New Dog Product",
                            "productImage": "https://gentlycarepyra2.s3.ap-south-1.amazonaws.com/1a5e6db1-7574-4e3b-a7f0-6f45ae204dd0unnamed.png",
                            "subcategoryId": 76,
                            "productCode": "7845",
                            "discount": 0
                        },
                        {
                            "id": 107,
                            "productName": "New Cat Product",
                            "productImage": "https://gentlycarepyra2.s3.ap-south-1.amazonaws.com/486343d4-dae1-490a-8bb9-ae0ea3fc108fxss-adult-1-optimized.png",
                            "subcategoryId": 76,
                            "productCode": "4564",
                            "discount": 0
                        },
                        {
                            "id": 108,
                            "productName": "Acacia dog Feed Products",
                            "productImage": "https://gentlycarepyra2.s3.ap-south-1.amazonaws.com/4dedde38-fb48-4bf9-a3f5-666969ea872dpetdoors.png",
                            "subcategoryId": 76,
                            "productCode": "2314",
                            "discount": 0
                        },
                        {
                            "id": 112,
                            "productName": "Pet Puppy Accessories 11",
                            "productImage": "https://gentlycarepyra2.s3.ap-south-1.amazonaws.com/5e2961ce-c48d-4cae-8f5b-f488212c5321pedigree-professional-active-adult-food-500x500.png",
                            "subcategoryId": 76,
                            "productCode": "2648",
                            "discount": 0
                        },
                        {
                            "id": 113,
                            "productName": "MissingLink Protien Shakes",
                            "productImage": "https://gentlycarepyra2.s3.ap-south-1.amazonaws.com/530b4a84-d756-407b-9a03-c4c3b51a9396Missing-Link-Senior.png",
                            "subcategoryId": 76,
                            "productCode": "26488",
                            "discount": 0
                        },
                        {
                            "id": 114,
                            "productName": "Pet Booster Tonic",
                            "productImage": "https://gentlycarepyra2.s3.ap-south-1.amazonaws.com/16a451a8-384f-4618-b13c-882b5f4689fbfront.png",
                            "subcategoryId": 76,
                            "productCode": "5896",
                            "discount": 0
                        },
                        {
                            "id": 117,
                            "productName": "Pedigree Puppy Milk & Vegetables Dog Food 1.2 Kg",
                            "productImage": "https://gentlycarepyra2.s3.ap-south-1.amazonaws.com/d1e3f6b6-0d85-429a-b1dd-f1a600f83d05pedigree-professional-active-adult-food-500x500.png",
                            "subcategoryId": 76,
                            "productCode": "78941",
                            "discount": 0
                        },
                        {
                            "id": 118,
                            "productName": "Pedigree dog products",
                            "productImage": "https://gentlycarepyra2.s3.ap-south-1.amazonaws.com/40eaa023-9c52-48d4-b893-7330ec192c5apedigree-professional-active-adult-food-500x500.png",
                            "subcategoryId": 76,
                            "productCode": "12456",
                            "discount": 0
                        },
                        {
                            "id": 119,
                            "productName": "Pedigree dog products",
                            "productImage": "https://gentlycarepyra2.s3.ap-south-1.amazonaws.com/b5015ac5-0626-4531-93ca-2e74d9f111d6pedigree-professional-active-adult-food-500x500.png",
                            "subcategoryId": 76,
                            "productCode": "124567",
                            "discount": 0
                        },
                        {
                            "id": 120,
                            "productName": "Pedigree dog products",
                            "productImage": "https://gentlycarepyra2.s3.ap-south-1.amazonaws.com/c08aaa47-c0d1-4609-8d74-711afcfe9423pedigree-professional-active-adult-food-500x500.png",
                            "subcategoryId": 76,
                            "productCode": "ss12456",
                            "discount": 0
                        },
                        {
                            "id": 121,
                            "productName": "Pedigree dog products",
                            "productImage": "https://gentlycarepyra2.s3.ap-south-1.amazonaws.com/e209f61a-0ed3-4f18-80a2-78be5b9e2483pedigree-professional-active-adult-food-500x500.png",
                            "subcategoryId": 76,
                            "productCode": "tyurew",
                            "discount": 0
                        },
                        {
                            "id": 122,
                            "productName": "Pedigree dog products",
                            "productImage": "https://gentlycarepyra2.s3.ap-south-1.amazonaws.com/76dee360-ffcc-4a4e-96b7-c83369334a96pedigree-professional-active-adult-food-500x500.png",
                            "subcategoryId": 76,
                            "productCode": "20145",
                            "discount": 0
                        }
                    ]
                },
                {
                    "id": 77,
                    "categoryId": 44,
                    "discount": 7.5,
                    "subCategoryName": "Sub cat",
                    "subCategoryImage": "https://gentlycarepyra2.s3.ap-south-1.amazonaws.com/186acc25-816d-4d9d-b41e-5b306b229ef9petdoors.png",
                    "subCategoryDescription": "Description",
                    "activeStatus": 1,
                    "products": [
                        {
                            "id": 127,
                            "productName": "Horse Food",
                            "productImage": "https://gentlycarepyra2.s3.ap-south-1.amazonaws.com/460a5935-7988-41ee-89df-94b1da55863dMissing-Link-Senior.png",
                            "subcategoryId": 77,
                            "productCode": "45268",
                            "discount": 0
                        }
                    ]
                }
            ]
        },
        {
            "id": 36,
            "categoryName": "Supplies",
            "categoryImage": "https://gentlycarepyra2.s3.ap-south-1.amazonaws.com/00e3f187-0c61-484c-9cd8-395e6b243f1e107139_MAIN._AC_SL400_V1566250853_.jpg",
            "categoryDescription": "Dogs have a body structure just like their ancestors and it is of vital importance that their diets should match too. Acana Classic Prairie Poultry Dog Food 11.4 Kg offers high-quality free-run chicken and turkey plus whole nest laid eggs which are delivered fresh or raw daily in Whole prey ratios from local prairie farms. Having 0% high glycemic carbohydrates, the meal provides low-glycemic and locally grown steel-cut oats that help maintain a stable blood sugar level and to prevent obesity,ff",
            "activeStatus": 1,
            "subcategory": [
                {
                    "id": 54,
                    "categoryId": 36,
                    "discount": 7,
                    "subCategoryName": "New Subcategory",
                    "subCategoryImage": "https://gentlycarepyra2.s3.ap-south-1.amazonaws.com/35afa09e-a1eb-4538-afe6-d0d4dd668a1cunnamed.png",
                    "subCategoryDescription": "desc",
                    "activeStatus": 1,
                    "products": [
                        {
                            "id": 98,
                            "productName": "Royal Cannin Food Products",
                            "productImage": "https://gentlycarepyra2.s3.ap-south-1.amazonaws.com/5927ca44-2ef0-41ef-8619-52d6fc1f9d6dmedium_strtr-1.jpg",
                            "subcategoryId": 54,
                            "productCode": "6542",
                            "discount": 0
                        },
                        {
                            "id": 99,
                            "productName": "Dairy Products for Dog",
                            "productImage": "https://gentlycarepyra2.s3.ap-south-1.amazonaws.com/b92206d1-bd24-4ba1-8601-6d886474e580unnamed.png",
                            "subcategoryId": 54,
                            "productCode": "7894",
                            "discount": 0
                        },
                        {
                            "id": 101,
                            "productName": "Pedigree Labrador Breed Products",
                            "productImage": "https://gentlycarepyra2.s3.ap-south-1.amazonaws.com/d1da18c0-52ad-4f54-9c12-3cde2508dfb081irqPrWW1L._AC_SL1500_.jpg",
                            "subcategoryId": 54,
                            "productCode": "3579",
                            "discount": 0
                        },
                        {
                            "id": 102,
                            "productName": "Pet Supplies",
                            "productImage": "https://gentlycarepyra2.s3.ap-south-1.amazonaws.com/3acc88db-4bdf-408f-990e-5bbbf70d11d2unnamed.png",
                            "subcategoryId": 54,
                            "productCode": "dsffsdf",
                            "discount": 0
                        },
                        {
                            "id": 103,
                            "productName": "Test Product",
                            "productImage": "https://gentlycarepyra2.s3.ap-south-1.amazonaws.com/3aec6989-1f0b-4de6-8762-f12d6357037exss-adult-1-optimized.png",
                            "subcategoryId": 54,
                            "productCode": "15256",
                            "discount": 0
                        },
                        {
                            "id": 124,
                            "productName": "Test 2",
                            "productImage": "https://gentlycarepyra2.s3.ap-south-1.amazonaws.com/4205bd28-6415-45d2-a366-e818d4b75ae0Image%2015.png",
                            "subcategoryId": 54,
                            "productCode": "100124",
                            "discount": 0
                        },
                        {
                            "id": 125,
                            "productName": "Pet Energy Tonic",
                            "productImage": "https://gentlycarepyra2.s3.ap-south-1.amazonaws.com/33cf224a-cbd5-48b4-9c30-2d1e1e0ddd65PET-BOOSTER-1.png",
                            "subcategoryId": 54,
                            "productCode": "14785",
                            "discount": 0
                        },
                        {
                            "id": 126,
                            "productName": "Canidine Dog Products",
                            "productImage": "https://gentlycarepyra2.s3.ap-south-1.amazonaws.com/82f256c2-f7f6-4828-8f70-f58e7579fefat1.png",
                            "subcategoryId": 54,
                            "productCode": "745896",
                            "discount": 0
                        }
                    ]
                }
            ]
        },
        {
            "id": 34,
            "categoryName": "Healthcare Products",
            "categoryImage": "https://gentlycarepyra2.s3.ap-south-1.amazonaws.com/3efe06d5-9f7b-462c-aa81-0ceaadf0b96bPet-Health-products1.jpg",
            "categoryDescription": "bvbc",
            "activeStatus": 1,
            "subcategory": [
                {
                    "id": 44,
                    "categoryId": 34,
                    "discount": 12.5,
                    "subCategoryName": "Dog Healthcare",
                    "subCategoryImage": "https://gentlycarepyra2.s3.ap-south-1.amazonaws.com/5f0a84e1-3a0f-4cc6-be04-72cc2ec602e0petdoors.png",
                    "subCategoryDescription": "Lorem ipsum dolor sit amet, consectetuer adipiscing elit. Aenean commodo ligula eget dolor. Aenean massa. Cum sociis natoque penatibus et magnis dis parturient montes, nascetur ridiculus mus. Donec quam felis, ultricies nec, pellentesque eu, pretium quis, sem. Nulla consequat massa quis enim. Donec pede justo, fringilla vel, aliquet nec, vulputate eget, arcu. In enim justo, rhoncus ut, imperdiet a, venenatis vitae, justo. Nullam dictum felis eu pede mollis pretium. Integer tincidunt.",
                    "activeStatus": 1,
                    "products": [
                        {
                            "id": 61,
                            "productName": "PALA MOUNTAINS My Beau Vision & Optics",
                            "productImage": "https://gentlycarepyra2.s3.ap-south-1.amazonaws.com/c832bbfd-3d13-45da-a1fe-08893c109e04palabeauvision.jpg",
                            "subcategoryId": 44,
                            "productCode": "EUR-2585",
                            "discount": 0
                        },
                        {
                            "id": 62,
                            "productName": "Beaphar Kalk Calcium Tablets For Dogs 60 tab",
                            "productImage": "https://gentlycarepyra2.s3.ap-south-1.amazonaws.com/f5aa4e17-8215-4b00-beb0-518c1035b7e5klka.jpg",
                            "subcategoryId": 44,
                            "productCode": "54644",
                            "discount": 0
                        },
                        {
                            "id": 67,
                            "productName": "Acana Classic Prairie Poultry Dog Food 6 Kg",
                            "productImage": "https://gentlycarepyra2.s3.ap-south-1.amazonaws.com/de90d815-eb72-4830-9f7f-8c96d64116ddall4petjointactive.jpg",
                            "subcategoryId": 44,
                            "productCode": "123556",
                            "discount": 0
                        },
                        {
                            "id": 70,
                            "productName": "Authority Large Breed Adult Dog Food - Chicken & Rice",
                            "productImage": "https://gentlycarepyra2.s3.ap-south-1.amazonaws.com/1b766de8-8f0d-4d97-83c0-5e14880e7dd0xss-adult-1-optimized.png",
                            "subcategoryId": 44,
                            "productCode": "EUR12345",
                            "discount": 0
                        },
                        {
                            "id": 72,
                            "productName": "Royal Canin Mini Junior Dog Food 8 Kg With Free Gifts*",
                            "productImage": "https://gentlycarepyra2.s3.ap-south-1.amazonaws.com/350f3a64-5356-4d2e-969a-6b31cd29587emini-junior-1.jpg",
                            "subcategoryId": 44,
                            "productCode": "45644",
                            "discount": 0
                        },
                        {
                            "id": 75,
                            "productName": "ROYAL CANIN KITTEN PERSIAN 4 KG",
                            "productImage": "https://gentlycarepyra2.s3.ap-south-1.amazonaws.com/38b33e63-77b5-4226-8a11-73546c0b6db6petdoors.png",
                            "subcategoryId": 44,
                            "productCode": "5464",
                            "discount": 0
                        },
                        {
                            "id": 76,
                            "productName": "Pedigree Dog product",
                            "productImage": "https://gentlycarepyra2.s3.ap-south-1.amazonaws.com/82131301-6480-46ec-9b83-1d897ad46ae781irqPrWW1L._AC_SL1500_.jpg",
                            "subcategoryId": 44,
                            "productCode": "EUR-8794",
                            "discount": 0
                        },
                        {
                            "id": 77,
                            "productName": "Perfect fit dog food",
                            "productImage": "https://gentlycarepyra2.s3.ap-south-1.amazonaws.com/8531ecd4-fb55-4625-b18d-e56494db825bxss-adult-1-optimized.png",
                            "subcategoryId": 44,
                            "productCode": "5641",
                            "discount": 0
                        },
                        {
                            "id": 78,
                            "productName": "Acana Adult Dog Food",
                            "productImage": "https://gentlycarepyra2.s3.ap-south-1.amazonaws.com/9d2fb61e-7da0-4544-b64f-63a82fc70837acanasmallbreed.jpg",
                            "subcategoryId": 44,
                            "productCode": "546487",
                            "discount": 0
                        },
                        {
                            "id": 79,
                            "productName": "Joint Active Pet Products",
                            "productImage": "https://gentlycarepyra2.s3.ap-south-1.amazonaws.com/7374fce8-b3b4-4da4-8a17-09741146d02fall4petjointactive.jpg",
                            "subcategoryId": 44,
                            "productCode": "154652",
                            "discount": 0
                        },
                        {
                            "id": 80,
                            "productName": "Dibaq Chicken & Rice Dog Food for Puppies (Medium Breed)(3 KG)",
                            "productImage": "https://gentlycarepyra2.s3.ap-south-1.amazonaws.com/7fcf4793-6994-434c-8ae3-9823d4a38247mini-junior-1.jpg",
                            "subcategoryId": 44,
                            "productCode": "25252",
                            "discount": 0
                        },
                        {
                            "id": 86,
                            "productName": "Acana Grass Fed Lamb Dog Food 340 Gm",
                            "productImage": "https://gentlycarepyra2.s3.ap-south-1.amazonaws.com/d77dafa6-44c3-4e51-a031-fe173589c2a6xss-adult-1-optimized.png",
                            "subcategoryId": 44,
                            "productCode": "6548",
                            "discount": 0
                        },
                        {
                            "id": 100,
                            "productName": "Pedigree Dog Products",
                            "productImage": "https://gentlycarepyra2.s3.ap-south-1.amazonaws.com/65931207-1590-4a52-9771-4c50b4b45483114155_MAIN._AC_SL400_V1562961138_%20-%20Copy.jpg",
                            "subcategoryId": 44,
                            "productCode": "65432",
                            "discount": 0
                        },
                        {
                            "id": 115,
                            "productName": "Farmina N&D Grain Free Chicken & Pomegranate Adult Dog Food 12 Kg ( Medium and Maxi)",
                            "productImage": "https://gentlycarepyra2.s3.ap-south-1.amazonaws.com/51875d5f-8acd-4376-980c-145aa489f477xss-adult-1-optimized.png",
                            "subcategoryId": 44,
                            "productCode": "54684",
                            "discount": 0
                        },
                        {
                            "id": 116,
                            "productName": "Royal Canin Mini Junior Dog Food 8 Kg With Free Gifts",
                            "productImage": "https://gentlycarepyra2.s3.ap-south-1.amazonaws.com/442bad9a-25a4-4bc1-a255-778116a8075bOnceDaily28ctLARGE-SC-Front.png",
                            "subcategoryId": 44,
                            "productCode": "12457",
                            "discount": 0
                        }
                    ]
                },
                {
                    "id": 45,
                    "categoryId": 34,
                    "discount": 10,
                    "subCategoryName": "Cat Healthcare",
                    "subCategoryImage": "https://gentlycarepyra2.s3.ap-south-1.amazonaws.com/cc7584b5-c122-41a7-95e7-fd627d08f31eAn_up-close_picture_of_a_curious_male_domestic_shorthair_tabby_cat.jpg",
                    "subCategoryDescription": "cxvxcvxc",
                    "activeStatus": 1,
                    "products": [
                        {
                            "id": 63,
                            "productName": "Bellotta Mackerel Gravy Cat Food 85 gms",
                            "productImage": "https://gentlycarepyra2.s3.ap-south-1.amazonaws.com/9439704f-753f-42b1-983f-2cd94ab739fdbellotta-mac85.jpg",
                            "subcategoryId": 45,
                            "productCode": "52555",
                            "discount": 0
                        },
                        {
                            "id": 64,
                            "productName": "Acana Cat Pacifica Food 1.8 Kg",
                            "productImage": "https://gentlycarepyra2.s3.ap-south-1.amazonaws.com/b025e563-315f-4a5a-9be3-f7b8486e73bbacanapacifica.jpg",
                            "subcategoryId": 45,
                            "productCode": "54455",
                            "discount": 0
                        },
                        {
                            "id": 66,
                            "productName": "Farmina Matisse Neutered Salmon Dry Cat Food 1.5 Kg",
                            "productImage": "https://gentlycarepyra2.s3.ap-south-1.amazonaws.com/9e9774cd-d793-424b-9c7a-b1d5a78bc3bafarmattsalmon.jpg",
                            "subcategoryId": 45,
                            "productCode": "14477",
                            "discount": 0
                        },
                        {
                            "id": 88,
                            "productName": "Bellota Cat multivitamin Food",
                            "productImage": "https://gentlycarepyra2.s3.ap-south-1.amazonaws.com/5e67057f-1f06-4ff4-bd62-2776b4be4428bellotta-mac85.jpg",
                            "subcategoryId": 45,
                            "productCode": "36985",
                            "discount": 0
                        },
                        {
                            "id": 89,
                            "productName": "Me-O Creamy Cat Treats Crab Flavor 60gm",
                            "productImage": "https://gentlycarepyra2.s3.ap-south-1.amazonaws.com/1ed50ebd-efd1-40f0-bf04-39d0a497eecbpetdoors.png",
                            "subcategoryId": 45,
                            "productCode": "23144",
                            "discount": 0
                        },
                        {
                            "id": 91,
                            "productName": "Cat Delicious Food",
                            "productImage": "https://gentlycarepyra2.s3.ap-south-1.amazonaws.com/b314b9b6-073b-4731-9233-8541b10f0ff7meo-creamy-treats-for-cat-and-crab_60gm.jpg",
                            "subcategoryId": 45,
                            "productCode": "45648",
                            "discount": 0
                        }
                    ]
                },
                {
                    "id": 46,
                    "categoryId": 34,
                    "discount": 5,
                    "subCategoryName": "Bird Healthcare",
                    "subCategoryImage": "https://gentlycarepyra2.s3.ap-south-1.amazonaws.com/7012dd44-50e7-4050-bbd2-4227d4172e7181RfjOhvMrL._SY355_.jpg",
                    "subCategoryDescription": "xcvxcvxcvx",
                    "activeStatus": 1,
                    "products": [
                        {
                            "id": 65,
                            "productName": "SmartHeart Bird Food Cockatiel Lovebird 1 Kg",
                            "productImage": "https://gentlycarepyra2.s3.ap-south-1.amazonaws.com/62d2586f-f72a-47b0-8e95-e7faa2d83edasmartheart_bird_food_cockatiel_lovebird_1kg.jpg",
                            "subcategoryId": 46,
                            "productCode": "16648",
                            "discount": 0
                        },
                        {
                            "id": 81,
                            "productName": "Bird Food Items",
                            "productImage": "https://gentlycarepyra2.s3.ap-south-1.amazonaws.com/e9b9fcc3-2269-4bb8-8536-bc676b6e831bPet-Health-products1.jpg",
                            "subcategoryId": 46,
                            "productCode": "EUR-4050",
                            "discount": 0
                        }
                    ]
                }
            ]
        },
        {
            "id": 32,
            "categoryName": "Horse Foods",
            "categoryImage": "https://gentlycarepyra2.s3.ap-south-1.amazonaws.com/697a61ef-1543-445c-a1bb-cded7a0c9a41horse.png",
            "categoryDescription": "Horses have very specific dietary needs because they are herbivores and have a unique digestive tract quite different from ours. Their long digestive system requires a high-fiber diet that is consumed in small amounts over a long time period. Rather than a few large meals like we should eat, horses eat many, many small meals. Horses actually spend most of their time eating!",
            "activeStatus": 1,
            "subcategory": [
                {
                    "id": 43,
                    "categoryId": 32,
                    "discount": 5,
                    "subCategoryName": "Grains",
                    "subCategoryImage": "https://gentlycarepyra2.s3.ap-south-1.amazonaws.com/55ac084e-cefb-4379-9325-323aad676a29grains.png",
                    "subCategoryDescription": "Grains that are grown, harvested and processed as we do now, are not natural foods for horses. It is easy to feed too much grain to horses. Grain also doesn't require the chewing time or contain the silica grass does and this can contribute to things like ulcers and dental problems. A horse that over-eats a large amount of grain may colic or founder.",
                    "activeStatus": 1,
                    "products": [
                        {
                            "id": 55,
                            "productName": "Concentrate",
                            "productImage": "https://gentlycarepyra2.s3.ap-south-1.amazonaws.com/9de73368-8e05-4d3c-8363-d69d26b8e3eagrains_one.png",
                            "subcategoryId": 43,
                            "productCode": "HF-GRAIN",
                            "discount": 0
                        }
                    ]
                }
            ]
        },
        {
            "id": 30,
            "categoryName": "Dog collars,Leaches & Harnesses Products",
            "categoryImage": "https://gentlycarepyra2.s3.ap-south-1.amazonaws.com/2e4ad3d9-9652-42ed-aa40-ab7c324e7490xss-adult-1-optimized.png",
            "categoryDescription": "This food is designed to meet the specific needs of cats to promote growth in them throughout their developmental months. This diet is rich in glucosamine & chondroitin that also helps in enhancing the bone strength. This Food is an assortment of all essential ingredients that help in maintaining the high energy level of felines. Also, the diet contains blueberry extracts that help in reducing free radical damage, as it is a natural anti-oxidant",
            "activeStatus": 1,
            "subcategory": [
                {
                    "id": 40,
                    "categoryId": 30,
                    "discount": 10,
                    "subCategoryName": "Dog Accessories",
                    "subCategoryImage": "https://gentlycarepyra2.s3.ap-south-1.amazonaws.com/1ce77020-5d02-4280-8377-deab40f243ebpetdoors.png",
                    "subCategoryDescription": "This food is designed to meet the specific needs of cats to promote growth in them throughout their developmental months. This diet is rich in glucosamine & chondroitin that also helps in enhancing the bone strength. This Food is an assortment of all essential ingredients that help in maintaining the high energy level of felines. Also, the diet contains blueberry extracts that help in reducing free radical damage, as it is a natural anti-oxidant.",
                    "activeStatus": 1,
                    "products": [
                        {
                            "id": 25,
                            "productName": "Dog Food",
                            "productImage": "https://gentlycarepyra2.s3.ap-south-1.amazonaws.com/bf4ad76e-b5f7-4186-83e2-72ed03fbe76a81irqPrWW1L._AC_SL1500_.jpg",
                            "subcategoryId": 40,
                            "productCode": "5562",
                            "discount": 0
                        },
                        {
                            "id": 28,
                            "productName": "Cat Food",
                            "productImage": "https://gentlycarepyra2.s3.ap-south-1.amazonaws.com/62e56457-8509-4690-a1ab-c34fb3bf61edpetdoors.png",
                            "subcategoryId": 40,
                            "productCode": "43535",
                            "discount": 0
                        },
                        {
                            "id": 29,
                            "productName": "Fish Foods",
                            "productImage": "https://gentlycarepyra2.s3.ap-south-1.amazonaws.com/e90866ef-1357-4420-9167-b7efb4be3234114155_MAIN._AC_SL400_V1562961138_.jpg",
                            "subcategoryId": 40,
                            "productCode": "7477",
                            "discount": 0
                        },
                        {
                            "id": 30,
                            "productName": "New Dog Food",
                            "productImage": "https://gentlycarepyra2.s3.ap-south-1.amazonaws.com/724abfad-f935-49d5-920b-97e7c70a80de81irqPrWW1L._AC_SL1500_.jpg",
                            "subcategoryId": 40,
                            "productCode": "D5456",
                            "discount": 0
                        },
                        {
                            "id": 32,
                            "productName": "Product A",
                            "productImage": "https://gentlycarepyra2.s3.ap-south-1.amazonaws.com/079cf510-de6c-44ca-b8b2-b416e9e10313petdoors.png",
                            "subcategoryId": 40,
                            "productCode": "65898",
                            "discount": 0
                        },
                        {
                            "id": 33,
                            "productName": "Product B",
                            "productImage": "https://gentlycarepyra2.s3.ap-south-1.amazonaws.com/df0b1a4d-eb7b-4f81-a75e-a97406ff2f22114155_MAIN._AC_SL400_V1562961138_.jpg",
                            "subcategoryId": 40,
                            "productCode": "54545",
                            "discount": 0
                        },
                        {
                            "id": 34,
                            "productName": "Product C",
                            "productImage": "https://gentlycarepyra2.s3.ap-south-1.amazonaws.com/9deb576e-d532-47f0-b446-7ed566d82dd6xss-adult-1-optimized.png",
                            "subcategoryId": 40,
                            "productCode": "2828",
                            "discount": 0
                        },
                        {
                            "id": 35,
                            "productName": "Product D",
                            "productImage": "https://gentlycarepyra2.s3.ap-south-1.amazonaws.com/08a663c0-a1b7-4dda-84c3-5e0d004f2447114155_MAIN._AC_SL400_V1562961138_.jpg",
                            "subcategoryId": 40,
                            "productCode": "8897",
                            "discount": 0
                        },
                        {
                            "id": 37,
                            "productName": "product F",
                            "productImage": "https://gentlycarepyra2.s3.ap-south-1.amazonaws.com/b5982a74-663d-4eb0-9230-c55e26e0e493xss-adult-1-optimized.png",
                            "subcategoryId": 40,
                            "productCode": "5455",
                            "discount": 0
                        },
                        {
                            "id": 38,
                            "productName": "Product G",
                            "productImage": "https://gentlycarepyra2.s3.ap-south-1.amazonaws.com/28d0b060-c042-4db3-9d04-533ce84adab1petdoors.png",
                            "subcategoryId": 40,
                            "productCode": "1563",
                            "discount": 0
                        },
                        {
                            "id": 39,
                            "productName": "Product H",
                            "productImage": "https://gentlycarepyra2.s3.ap-south-1.amazonaws.com/ac0ad0c7-4796-4469-95d1-4c8dee9599fa114155_MAIN._AC_SL400_V1562961138_.jpg",
                            "subcategoryId": 40,
                            "productCode": "456133",
                            "discount": 0
                        },
                        {
                            "id": 40,
                            "productName": "Product I",
                            "productImage": "https://gentlycarepyra2.s3.ap-south-1.amazonaws.com/1a4d78ef-d366-4d77-9dbc-cc27ad3c17c3xss-adult-1-optimized.png",
                            "subcategoryId": 40,
                            "productCode": "1233",
                            "discount": 0
                        },
                        {
                            "id": 41,
                            "productName": "Product J",
                            "productImage": "https://gentlycarepyra2.s3.ap-south-1.amazonaws.com/24394938-9b27-4a50-9a51-99feec71d8dbpetdoors.png",
                            "subcategoryId": 40,
                            "productCode": "25644",
                            "discount": 0
                        },
                        {
                            "id": 42,
                            "productName": "Product K",
                            "productImage": "https://gentlycarepyra2.s3.ap-south-1.amazonaws.com/00c30257-d784-4a06-b33f-da4a6613d60a114155_MAIN._AC_SL400_V1562961138_.jpg",
                            "subcategoryId": 40,
                            "productCode": "44554",
                            "discount": 0
                        },
                        {
                            "id": 44,
                            "productName": "Trixie Premium Dog Harness (Royal Blue) (H Shaped Design) (S-M)(S-M)",
                            "productImage": "https://gentlycarepyra2.s3.ap-south-1.amazonaws.com/396b2d3a-631d-456c-8370-a6737c26b19dxss-adult-1-optimized.png",
                            "subcategoryId": 40,
                            "productCode": "EUR2584",
                            "discount": 0
                        }
                    ]
                },
                {
                    "id": 41,
                    "categoryId": 30,
                    "discount": 10,
                    "subCategoryName": "Dog Collars",
                    "subCategoryImage": "https://gentlycarepyra2.s3.ap-south-1.amazonaws.com/f93fe75a-db56-426d-9a63-974f378d219bxss-adult-1-optimized.png",
                    "subCategoryDescription": "This food is designed to meet the specific needs of cats to promote growth in them throughout their developmental months. This diet is rich in glucosamine & chondroitin that also helps in enhancing the bone strength. This Food is an assortment of all essential ingredients that help in maintaining the high energy level of felines. Also, the diet contains blueberry extracts that help in reducing free radical damage, as it is a natural anti-oxidant.",
                    "activeStatus": 1,
                    "products": [
                        {
                            "id": 27,
                            "productName": "Dog Food",
                            "productImage": "https://gentlycarepyra2.s3.ap-south-1.amazonaws.com/5d793a7c-5d30-4aff-b7c6-b628779a9c88xss-adult-1-optimized.png",
                            "subcategoryId": 41,
                            "productCode": "5454",
                            "discount": 0
                        },
                        {
                            "id": 31,
                            "productName": "Vitapol Honey Smaker Food for Budgies (90 gm)",
                            "productImage": "https://gentlycarepyra2.s3.ap-south-1.amazonaws.com/d2b1c9b9-a928-4488-82c8-e330d5351e66petdoors.png",
                            "subcategoryId": 41,
                            "productCode": "5648",
                            "discount": 0
                        },
                        {
                            "id": 46,
                            "productName": "Royal Canin Ultra Light Cat Food 1.2 Kg (12 Pcs) With Free Gifts",
                            "productImage": "https://gentlycarepyra2.s3.ap-south-1.amazonaws.com/e026597a-0289-4864-9233-8cfa8342dee3xss-adult-1-optimized.png",
                            "subcategoryId": 41,
                            "productCode": "EUR5898",
                            "discount": 0
                        },
                        {
                            "id": 47,
                            "productName": "Bellotta Chat Gourmet Tuna Light Meat With Shrimps in Jelly Cat Food 80 gm",
                            "productImage": "https://gentlycarepyra2.s3.ap-south-1.amazonaws.com/5bffa949-3ea9-4f4c-9c34-3d946b7d6aaa114155_MAIN._AC_SL400_V1562961138_.jpg",
                            "subcategoryId": 41,
                            "productCode": "EUR4565",
                            "discount": 0
                        },
                        {
                            "id": 48,
                            "productName": "Beaphar Bone Builder Supplement For Dogs and Cats 500 gms",
                            "productImage": "https://gentlycarepyra2.s3.ap-south-1.amazonaws.com/31364f8c-e2b8-44ae-b369-533b7757bba4xss-adult-1-optimized.png",
                            "subcategoryId": 41,
                            "productCode": "EUR4265",
                            "discount": 0
                        },
                        {
                            "id": 56,
                            "productName": "Royal Canin Medium Starter Dog Food 4 Kg With Free Gifts*",
                            "productImage": "https://gentlycarepyra2.s3.ap-south-1.amazonaws.com/c1f5a4a3-8b88-43de-b9ba-6f3f32f6ec0emedium_strtr-1.jpg",
                            "subcategoryId": 41,
                            "productCode": "EUR8585",
                            "discount": 0
                        },
                        {
                            "id": 58,
                            "productName": "New Product A",
                            "productImage": "https://gentlycarepyra2.s3.ap-south-1.amazonaws.com/b997b4e2-24e3-4d22-9f6a-8e769d097607petdoors.png",
                            "subcategoryId": 41,
                            "productCode": "54568",
                            "discount": 0
                        },
                        {
                            "id": 59,
                            "productName": "Acana Small Breed Adult Dog Food 2 Kg",
                            "productImage": "https://gentlycarepyra2.s3.ap-south-1.amazonaws.com/ce7a82af-0260-45d0-aca9-ea4242774c8facanasmallbreed.jpg",
                            "subcategoryId": 41,
                            "productCode": "EUR-2565",
                            "discount": 0
                        }
                    ]
                }
            ]
        },
        {
            "id": 29,
            "categoryName": "Muthu Pet's Care",
            "categoryImage": "https://gentlycarepyra2.s3.ap-south-1.amazonaws.com/605b60cb-1d20-4bf8-b1d1-538f2e43d5a1pngfuel.com%20%284%29.png",
            "categoryDescription": "Dogs too meet accidents and as a responsible pet owner, it’s your need to have an emergency first aid kit ready at any time. Pet’s First Aid Kit can be bought from pet shops as a ready-made",
            "activeStatus": 1,
            "subcategory": [
                {
                    "id": 36,
                    "categoryId": 29,
                    "discount": 7,
                    "subCategoryName": "Medications",
                    "subCategoryImage": "https://gentlycarepyra2.s3.ap-south-1.amazonaws.com/4b0f7897-9210-49f3-8d9b-2d741acaf476Dog-Care.png",
                    "subCategoryDescription": "A medication is a drug used to diagnose, cure, treat, or prevent disease. Drug therapy is an important part of the medical field and relies on the science of pharmacology for continual advancement and on pharmacy for appropriate management. Drugs are classified in multiple ways.",
                    "activeStatus": 1,
                    "products": [
                        {
                            "id": 24,
                            "productName": "Dog stethoscope",
                            "productImage": "https://gentlycarepyra2.s3.ap-south-1.amazonaws.com/0a3a5836-e11c-4d81-b65d-c2995999cb29hiclipart.com.png",
                            "subcategoryId": 36,
                            "productCode": "7878",
                            "discount": 0
                        },
                        {
                            "id": 53,
                            "productName": "Product E",
                            "productImage": "https://gentlycarepyra2.s3.ap-south-1.amazonaws.com/87a44150-85fd-4210-90e8-640931fcefd4Cute_Mammoth_Cartoon_PNG_Clipart_Image.png",
                            "subcategoryId": 36,
                            "productCode": "ET6754",
                            "discount": 0
                        },
                        {
                            "id": 57,
                            "productName": "Dog soap",
                            "productImage": "https://gentlycarepyra2.s3.ap-south-1.amazonaws.com/75f23d27-b7fc-467a-9a80-996e7ab2d0a9kindpng_1711024.png",
                            "subcategoryId": 36,
                            "productCode": "Sp-1212",
                            "discount": 0
                        },
                        {
                            "id": 82,
                            "productName": "Dog Eye care",
                            "productImage": "https://gentlycarepyra2.s3.ap-south-1.amazonaws.com/76bb65ef-5812-4e1f-b770-2c2639053368cat-and-dog-pet-first-aid-emergency-kits-chihuahua-first-aid-pet-first-aid-emergency-kits-png-800_738.png",
                            "subcategoryId": 36,
                            "productCode": "smk10",
                            "discount": 0
                        },
                        {
                            "id": 83,
                            "productName": "Pets medication suitcase large",
                            "productImage": "https://gentlycarepyra2.s3.ap-south-1.amazonaws.com/15807b7b-cf90-48cc-8fa7-e68474ee9db9pngfuel.com.png",
                            "subcategoryId": 36,
                            "productCode": "smk11",
                            "discount": 0
                        },
                        {
                            "id": 84,
                            "productName": "carry case",
                            "productImage": "https://gentlycarepyra2.s3.ap-south-1.amazonaws.com/dab70679-160b-4223-932e-2f4f45adf70fpngfuel.com%20%283%29.png",
                            "subcategoryId": 36,
                            "productCode": "smk12",
                            "discount": 0
                        },
                        {
                            "id": 87,
                            "productName": "Dog Health Drinks",
                            "productImage": "https://gentlycarepyra2.s3.ap-south-1.amazonaws.com/19fb214e-5b06-453e-a2e8-52f3e85b30f2hero-pack-lockup.png",
                            "subcategoryId": 36,
                            "productCode": "smk13",
                            "discount": 0
                        }
                    ]
                },
                {
                    "id": 42,
                    "categoryId": 29,
                    "discount": 10,
                    "subCategoryName": "Pet Toys",
                    "subCategoryImage": "https://gentlycarepyra2.s3.ap-south-1.amazonaws.com/e00f801d-ecba-4879-98a0-7df8c1686580pngfuel.com%20%284%29.png",
                    "subCategoryDescription": "Elephant families are led by females. They don't need much sleep. ...They are emotional creatures. ...Their memory is impressive. ...Elephants love a good shower. ...They are creative communicators. ...",
                    "activeStatus": 1,
                    "products": [
                        {
                            "id": 26,
                            "productName": "Plush Duck",
                            "productImage": "https://gentlycarepyra2.s3.ap-south-1.amazonaws.com/4f12c95a-b4a9-40e4-8666-60562b23f1ac5b8d33b6a639e004e1cab52e.png",
                            "subcategoryId": 42,
                            "productCode": "Dk9900",
                            "discount": 0
                        },
                        {
                            "id": 45,
                            "productName": "My product",
                            "productImage": "https://gentlycarepyra2.s3.ap-south-1.amazonaws.com/2487eac1-68a7-4cc4-8474-926f2057a5abDog-Care.png",
                            "subcategoryId": 42,
                            "productCode": "TB9080",
                            "discount": 0
                        },
                        {
                            "id": 49,
                            "productName": "Elephant Toy",
                            "productImage": "https://gentlycarepyra2.s3.ap-south-1.amazonaws.com/df84d20a-5bb4-4773-a9e6-16bcc125bbc3Cute_Mammoth_Cartoon_PNG_Clipart_Image.png",
                            "subcategoryId": 42,
                            "productCode": "ELE-7788",
                            "discount": 0
                        },
                        {
                            "id": 50,
                            "productName": "Cute Panda",
                            "productImage": "https://gentlycarepyra2.s3.ap-south-1.amazonaws.com/c6f466b2-f5a3-424b-84fa-bd595d2e17eeCute_Panda_PNG_Clipart_Image.png",
                            "subcategoryId": 42,
                            "productCode": "PA-6754",
                            "discount": 0
                        },
                        {
                            "id": 51,
                            "productName": "Cute Dog Toy 2020",
                            "productImage": "https://gentlycarepyra2.s3.ap-south-1.amazonaws.com/c49c3cd6-4b03-4cd3-a805-966efcc37004Dog_Cartoon_PNG_Clip_Art_Image-1262576976.png",
                            "subcategoryId": 42,
                            "productCode": "DG-2234",
                            "discount": 0
                        },
                        {
                            "id": 52,
                            "productName": "Dragon Toy",
                            "productImage": "https://gentlycarepyra2.s3.ap-south-1.amazonaws.com/ef09ecec-93a3-43cc-95aa-60882ef0360eCute_Dragon_Cartoon_PNG_Clipart_Image.png",
                            "subcategoryId": 42,
                            "productCode": "DR-8976543",
                            "discount": 0
                        },
                        {
                            "id": 54,
                            "productName": "Horse",
                            "productImage": "https://gentlycarepyra2.s3.ap-south-1.amazonaws.com/b936a6ec-d7df-441a-9cb9-4f0c70027f2183885-sims-horse-markings-rein-pets-free-transparent-image-hq.png",
                            "subcategoryId": 42,
                            "productCode": "HR55456",
                            "discount": 0
                        },
                        {
                            "id": 60,
                            "productName": "Tiger Toy",
                            "productImage": "https://gentlycarepyra2.s3.ap-south-1.amazonaws.com/e91324f2-1bcc-4504-a361-56222328d8b02-tiger-png-image-download-tigers.png",
                            "subcategoryId": 42,
                            "productCode": "TI-9090909",
                            "discount": 0
                        },
                        {
                            "id": 90,
                            "productName": "Tom",
                            "productImage": "https://gentlycarepyra2.s3.ap-south-1.amazonaws.com/6b462283-70b4-4af5-91b0-64b2ec0a8193pngfuel.com%20%284%29.png",
                            "subcategoryId": 42,
                            "productCode": "Muthu-100",
                            "discount": 0
                        }
                    ]
                },
                {
                    "id": 47,
                    "categoryId": 29,
                    "discount": 11,
                    "subCategoryName": "Fish Care",
                    "subCategoryImage": "https://gentlycarepyra2.s3.ap-south-1.amazonaws.com/a833a90d-b57b-4bda-99e7-1cddb2143743clipart3084485.png",
                    "subCategoryDescription": "Are Fish Really a Low-Maintenance Pet? Generally speaking, freshwater fish are less expensive and easier to care for than other types of pets, leading to the perception that they're easy to keep. While they can be less trouble than other types of animals, that doesn't exactly make them low-maintenance pets.",
                    "activeStatus": 1,
                    "products": [
                        {
                            "id": 68,
                            "productName": "Fish food",
                            "productImage": "https://gentlycarepyra2.s3.ap-south-1.amazonaws.com/cb6e9f44-edd6-4cde-8c92-03bff1c23dfd36-366452_sea-animals-png-ocean-safari-fish-art-water.png",
                            "subcategoryId": 47,
                            "productCode": "Fh1000",
                            "discount": 0
                        }
                    ]
                },
                {
                    "id": 48,
                    "categoryId": 29,
                    "discount": 18,
                    "subCategoryName": "Birthday cards",
                    "subCategoryImage": "https://gentlycarepyra2.s3.ap-south-1.amazonaws.com/0d1ae957-bdc3-4a99-9704-a6801a0bc6b0clipart1346934.png",
                    "subCategoryDescription": "The cat is a domestic species of small carnivorous mammal. It is the only domesticated species in the family Felidae and is often referred to as the domestic cat to distinguish it from the wild members of the family",
                    "activeStatus": 1,
                    "products": [
                        {
                            "id": 69,
                            "productName": "Birthday card",
                            "productImage": "https://gentlycarepyra2.s3.ap-south-1.amazonaws.com/9f51ffaf-6be9-4906-b800-bb22cc3d5b73clipart1346934.png",
                            "subcategoryId": 48,
                            "productCode": "BC100",
                            "discount": 0
                        },
                        {
                            "id": 71,
                            "productName": "Birthday Card",
                            "productImage": "https://gentlycarepyra2.s3.ap-south-1.amazonaws.com/ff8729bb-ba5c-4472-97c0-6cab0abe5a98clipart3341182.png",
                            "subcategoryId": 48,
                            "productCode": "BC1002",
                            "discount": 0
                        }
                    ]
                },
                {
                    "id": 49,
                    "categoryId": 29,
                    "discount": 10,
                    "subCategoryName": "Care Tips",
                    "subCategoryImage": "https://gentlycarepyra2.s3.ap-south-1.amazonaws.com/26dcef43-e14c-4fe0-b451-a6b0a80a6bf7pngfuel.com%20%282%29.png",
                    "subCategoryDescription": "Taking Care Of Your Pet Bird Is Important. Pet birds are different than cats and dogs, but they are not any more difficult to keep healthy. The right pet bird diet, a clean cage, fresh bird food and water, safe bird toys, exercise, and lots of attention are the basics.",
                    "activeStatus": 1,
                    "products": [
                        {
                            "id": 73,
                            "productName": "Bird 200",
                            "productImage": "https://gentlycarepyra2.s3.ap-south-1.amazonaws.com/74c57063-6ee6-4eae-a08f-1de51df4a5b0106-1069456_doves-png-images-transparent-background-dove-birds-png.png",
                            "subcategoryId": 49,
                            "productCode": "Smk100",
                            "discount": 0
                        },
                        {
                            "id": 74,
                            "productName": "Birds 250",
                            "productImage": "https://gentlycarepyra2.s3.ap-south-1.amazonaws.com/9095beed-f5cd-47ee-a163-8285a06948e2flock-of-birds-png-birds-png-image-1024.png",
                            "subcategoryId": 49,
                            "productCode": "smk101",
                            "discount": 0
                        }
                    ]
                },
                {
                    "id": 50,
                    "categoryId": 29,
                    "discount": 20,
                    "subCategoryName": "Hamster Products",
                    "subCategoryImage": "https://gentlycarepyra2.s3.ap-south-1.amazonaws.com/b33e5908-dee9-462c-a392-6bea3fde7ee0kisspng-golden-hamster-gerbil-guinea-pig-cage-hamster-5acf1ce1eeb027.9157413615235227859777.png",
                    "subCategoryDescription": "Hamsters are rodents belonging to the subfamily Cricetinae, which contains 19 species classified in seven genera. They have become established as popular small house pets. The best-known species of hamster is the golden or Syrian hamster, which is the type most commonly kept as pets.",
                    "activeStatus": 1,
                    "products": []
                },
                {
                    "id": 55,
                    "categoryId": 29,
                    "discount": 8,
                    "subCategoryName": "parrot Care's",
                    "subCategoryImage": "https://gentlycarepyra2.s3.ap-south-1.amazonaws.com/b97f6084-d86c-47be-a70f-d67288765521pngfuel.com%20%287%29.png",
                    "subCategoryDescription": "Parrots, also known as psittacines, are birds of the roughly 393 species in 92 genera comprising the order Psittaciformes, found mostly in tropical and subtropical regions. The order is subdivided into three superfamilies: the Psittacoidea, the Cacatuoidea, and the Strigopoidea",
                    "activeStatus": 1,
                    "products": [
                        {
                            "id": 92,
                            "productName": "Parrot Cage Large",
                            "productImage": "https://gentlycarepyra2.s3.ap-south-1.amazonaws.com/bc9f5efb-c9a0-4f33-9842-ac882f8fc8f4pngfuel.com%20%288%29.png",
                            "subcategoryId": 55,
                            "productCode": "Muthu-113",
                            "discount": 0
                        },
                        {
                            "id": 93,
                            "productName": "Parrot Food",
                            "productImage": "https://gentlycarepyra2.s3.ap-south-1.amazonaws.com/3601b133-f761-4482-9d5c-1f38c0b008fcpngfuel.com%20%2810%29.png",
                            "subcategoryId": 55,
                            "productCode": "Muthu-114",
                            "discount": 0
                        },
                        {
                            "id": 94,
                            "productName": "Parrot Bike",
                            "productImage": "https://gentlycarepyra2.s3.ap-south-1.amazonaws.com/30a5836c-b869-4084-ba00-6252e14aa358pngfuel.com%20%2812%29.png",
                            "subcategoryId": 55,
                            "productCode": "Muthu-115",
                            "discount": 0
                        }
                    ]
                },
                {
                    "id": 56,
                    "categoryId": 29,
                    "discount": 10,
                    "subCategoryName": "Birds Foods",
                    "subCategoryImage": "https://gentlycarepyra2.s3.ap-south-1.amazonaws.com/97d4efa4-f6fb-4799-8d5c-44d6037aca95pngfuel.com%20%2811%29.png",
                    "subCategoryDescription": "Bird food is food (often varieties of seeds, nuts, or dried fruits) eaten by birds. While most bird food is fed to commercial fowl, people also use bird food to feed pet birds or wild birds. The various types of bird food reflect the species of bird that can be fed, whether they are carnivores or nectar eating birds.",
                    "activeStatus": 1,
                    "products": [
                        {
                            "id": 95,
                            "productName": "Bird foods",
                            "productImage": "https://gentlycarepyra2.s3.ap-south-1.amazonaws.com/b500d56d-3854-4fc5-91fe-4b7a63b916a4pngfuel.com%20%289%29.png",
                            "subcategoryId": 56,
                            "productCode": "Muthu-116",
                            "discount": 0
                        },
                        {
                            "id": 96,
                            "productName": "Parrot cake",
                            "productImage": "https://gentlycarepyra2.s3.ap-south-1.amazonaws.com/4c435c6c-c238-4a5d-842b-a0f3bec4fa72pngfuel.com%20%286%29.png",
                            "subcategoryId": 56,
                            "productCode": "Muthu-117",
                            "discount": 0
                        }
                    ]
                },
                {
                    "id": 58,
                    "categoryId": 29,
                    "discount": 12,
                    "subCategoryName": "parrot Care's parrot Care's parrot Care's parrotss",
                    "subCategoryImage": "https://gentlycarepyra2.s3.ap-south-1.amazonaws.com/1849bcb0-e46d-4ae4-86ba-549e3113c3f0pngfuel.com%20%286%29.png",
                    "subCategoryDescription": "parrot Care's parrot Care's parrot Care's parrotssparrot Care's parrot Care's parrot Care's parrotssparrot Care's parrot Care's parrot Care's parrotssparrot Care's parrot Care's parrot Care's parrotssparrot Care's parrot Care's parrot Care's parrotssparrot Care's parrot Care's parrot Care's parrotssparrot Care's parrot Care's parrot Care's parrotssparrot Care's parrot Care's parrot Care's parrotssparrot Care's parrot Care's parrot Care's parrotssparrot Care's parrot Care's parrot Care's parrotss",
                    "activeStatus": 1,
                    "products": [
                        {
                            "id": 97,
                            "productName": "bird",
                            "productImage": "https://gentlycarepyra2.s3.ap-south-1.amazonaws.com/fdfabc25-ebd3-4db6-81ac-c63ab880158apngfuel.com%20%286%29.png",
                            "subcategoryId": 58,
                            "productCode": "Muthu-000",
                            "discount": 0
                        }
                    ]
                }
            ]
        },
        {
            "id": 27,
            "categoryName": "New join list",
            "categoryImage": "https://gentlycarepyra2.s3.ap-south-1.amazonaws.com/39d060d5-1215-4f23-9245-5aeb4fe7fb6761SScq2DZlL._AC_SX466_.png",
            "categoryDescription": "Lorem Ipsum is simply dummy text of the printing and typesetting industry. Lorem Ipsum has been the industry's standard dummy text ever since the 1500s",
            "activeStatus": 1,
            "subcategory": []
        },
        {
            "id": 26,
            "categoryName": "Category 10",
            "categoryImage": "https://gentlycarepyra2.s3.ap-south-1.amazonaws.com/96929e07-ebd7-422c-8131-406d052a38bamll-adult-1-optimiz.png",
            "categoryDescription": "Lorem Ipsum is simply dummy text of the printing and typesetting industry. Lorem Ipsum has been the industry's standard dummy text ever since the 1500s",
            "activeStatus": 1,
            "subcategory": []
        },
        {
            "id": 25,
            "categoryName": "Pet Drugs Products",
            "categoryImage": "https://gentlycarepyra2.s3.ap-south-1.amazonaws.com/1b2e394b-01bb-4a84-b3be-1b834004c5dc148705_MAIN._AC_SL1500_V1528214534_.png",
            "categoryDescription": "Lorem Ipsum is simply dummy text of the printing and typesetting industry. Lorem Ipsum has been the industry's standard dummy text ever since the 1500s",
            "activeStatus": 1,
            "subcategory": [
                {
                    "id": 20,
                    "categoryId": 25,
                    "discount": 52.5,
                    "subCategoryName": "Drugs",
                    "subCategoryImage": "https://gentlycarepyra2.s3.ap-south-1.amazonaws.com/5418a373-9b66-43ad-a73a-78e66f7401fb148705_MAIN._AC_SL1500_V1528214534_.png",
                    "subCategoryDescription": "",
                    "activeStatus": 1,
                    "products": []
                },
                {
                    "id": 21,
                    "categoryId": 25,
                    "discount": 45,
                    "subCategoryName": "Dog Drugs",
                    "subCategoryImage": "https://gentlycarepyra2.s3.ap-south-1.amazonaws.com/46575f89-8bf0-4690-9d92-52b25d9acc8eadvanced-pet.png",
                    "subCategoryDescription": "",
                    "activeStatus": 1,
                    "products": [
                        {
                            "id": 7,
                            "productName": "Drools Focus Adult Super Premium Dog Food, 12 KGs(12 KG)",
                            "productImage": "http://188.166.228.50/europet-img/product2.png",
                            "subcategoryId": 21,
                            "productCode": "5486",
                            "discount": 0
                        },
                        {
                            "id": 14,
                            "productName": "New product",
                            "productImage": "http://188.166.228.50/europet-img/product2.png",
                            "subcategoryId": 21,
                            "productCode": "C0089",
                            "discount": 0
                        }
                    ]
                },
                {
                    "id": 22,
                    "categoryId": 25,
                    "discount": 20,
                    "subCategoryName": "Dog Products",
                    "subCategoryImage": "https://gentlycarepyra2.s3.ap-south-1.amazonaws.com/7780a558-4561-4d72-9eb8-4393dd1852a7Friskies-Cat-Food.png",
                    "subCategoryDescription": "",
                    "activeStatus": 1,
                    "products": []
                },
                {
                    "id": 23,
                    "categoryId": 25,
                    "discount": 0,
                    "subCategoryName": "Cat Medicines",
                    "subCategoryImage": "https://gentlycarepyra2.s3.ap-south-1.amazonaws.com/22f93717-4b47-4be0-8694-c7265c1f304ckq1qprzrtj7uissyuv7n.png",
                    "subCategoryDescription": "",
                    "activeStatus": 1,
                    "products": []
                },
                {
                    "id": 24,
                    "categoryId": 25,
                    "discount": 15.5,
                    "subCategoryName": "Dog Medicines",
                    "subCategoryImage": "https://gentlycarepyra2.s3.ap-south-1.amazonaws.com/db70e50f-3863-43c3-8e9c-f495fa05b5efmll-adult-1-optimiz.png",
                    "subCategoryDescription": "Lorem Ipsum is simply dummy text of the printing and typesetting industry. Lorem Ipsum has been the industry's standard dummy text ever since the 1500s",
                    "activeStatus": 1,
                    "products": []
                }
            ]
        },
        {
            "id": 19,
            "categoryName": "Dogs products",
            "categoryImage": "https://gentlycarepyra2.s3.ap-south-1.amazonaws.com/9ef29c3c-e295-45e8-85a1-f4a157a33e2eImage%2015.png",
            "categoryDescription": "",
            "activeStatus": 1,
            "subcategory": [
                {
                    "id": 12,
                    "categoryId": 19,
                    "discount": 3,
                    "subCategoryName": "new 19",
                    "subCategoryImage": "https://images-na.ssl-images-amazon.com/images/I/71bMoQXPDSL._SY355_.jpg",
                    "subCategoryDescription": "",
                    "activeStatus": 1,
                    "products": []
                },
                {
                    "id": 17,
                    "categoryId": 19,
                    "discount": 0,
                    "subCategoryName": "name9",
                    "subCategoryImage": "https://gentlycarepyra2.s3.ap-south-1.amazonaws.com/7af50bf1-7ff9-41f9-b3d6-711bb73e9862Image%2010.png",
                    "subCategoryDescription": "",
                    "activeStatus": 1,
                    "products": [
                        {
                            "id": 4,
                            "productName": "New product",
                            "productImage": "http://188.166.228.50/europet-img/product2.png",
                            "subcategoryId": 17,
                            "productCode": "877967",
                            "discount": 0
                        }
                    ]
                }
            ]
        },
        {
            "id": 14,
            "categoryName": "Category68",
            "categoryImage": "https://gentlycarepyra2.s3.ap-south-1.amazonaws.com/330dc7e5-e02c-40a6-8795-9a4933b30ff1cat-food-bowl-png-1.png",
            "categoryDescription": "Lorem Ipsum is simply dummy text of the printing and typesetting industry. Lorem Ipsum has been the industry's standard dummy text ever since the 1500s",
            "activeStatus": 1,
            "subcategory": []
        },
        {
            "id": 13,
            "categoryName": "Category6",
            "categoryImage": "https://gentlycarepyra2.s3.ap-south-1.amazonaws.com/6432f156-16df-47c6-aafc-5000700090a1images%20%281%29.jpeg",
            "categoryDescription": "Lorem Ipsum is simply dummy text of the printing and typesetting industry. Lorem Ipsum has been the industry's standard dummy text ever since the 1500s",
            "activeStatus": 1,
            "subcategory": []
        },
        {
            "id": 12,
            "categoryName": "New",
            "categoryImage": "http://188.166.228.50/europet-img/image-3.png",
            "categoryDescription": "Lorem Ipsum is simply dummy text of the printing and typesetting industry. Lorem Ipsum has been the industry's standard dummy text ever since the 1500s",
            "activeStatus": 1,
            "subcategory": []
        },
        {
            "id": 11,
            "categoryName": "Dry Cat Food",
            "categoryImage": "https://gentlycarepyra2.s3.ap-south-1.amazonaws.com/384e8466-0633-481f-ac31-ad916f7a4c8bimage%201.png",
            "categoryDescription": "Lorem Ipsum is simply dummy text of the printing and typesetting industry. Lorem Ipsum has been the industry's standard dummy text ever since the 1500s",
            "activeStatus": 1,
            "subcategory": [
                {
                    "id": 9,
                    "categoryId": 11,
                    "discount": 3,
                    "subCategoryName": "new 1",
                    "subCategoryImage": "https://images-na.ssl-images-amazon.com/images/I/71bMoQXPDSL._SY355_.jpg",
                    "subCategoryDescription": "Lorem Ipsum is simply dummy text of the printing and typesetting industry. Lorem Ipsum has been the industry's standard dummy text ever since the 1500s",
                    "activeStatus": 1,
                    "products": []
                }
            ]
        },
        {
            "id": 10,
            "categoryName": "Dryy Dog Food",
            "categoryImage": "https://gentlycarepyra2.s3.ap-south-1.amazonaws.com/85bf6acd-188a-4052-852f-4b2eed7d1dd9advanced-pet.png",
            "categoryDescription": "Lorem Ipsum is simply dummy text of the printing and typesetting industry. Lorem Ipsum has been the industry's standard dummy text ever since the 15",
            "activeStatus": 1,
            "subcategory": []
        },
        {
            "id": 9,
            "categoryName": "Cat Snacks",
            "categoryImage": "https://gentlycarepyra2.s3.ap-south-1.amazonaws.com/7f8031d8-f24e-4117-9ff9-1bb3e5d2571dPic1.png",
            "categoryDescription": "Lorem Ipsum is simply dummy text of the printing and typesetting industry. Lorem Ipsum has been the industry's standard dummy text ever since the 1500s",
            "activeStatus": 1,
            "subcategory": []
        },
        {
            "id": 8,
            "categoryName": "Pet Bird Food",
            "categoryImage": "https://gentlycarepyra2.s3.ap-south-1.amazonaws.com/7ae3d2a1-42a7-4dce-a3e4-4695e757db92148705_MAIN._AC_SL1500_V1528214534_.png",
            "categoryDescription": "Lorem Ipsum is simply dummy text of the printing and typesetting industry. Lorem Ipsum has been the industry's standard dummy text ever since the 1500s",
            "activeStatus": 1,
            "subcategory": [
                {
                    "id": 16,
                    "categoryId": 8,
                    "discount": 2,
                    "subCategoryName": "sub-category0",
                    "subCategoryImage": "https://gentlycarepyra2.s3.ap-south-1.amazonaws.com/7af50bf1-7ff9-41f9-b3d6-711bb73e9862Image%2010.png",
                    "subCategoryDescription": "",
                    "activeStatus": 1,
                    "products": [
                        {
                            "id": 123,
                            "productName": "Test",
                            "productImage": "https://gentlycarepyra2.s3.ap-south-1.amazonaws.com/822cd293-80c4-48c7-8520-7dac7e158527Image%2010.png",
                            "subcategoryId": 16,
                            "productCode": "8126482",
                            "discount": 0
                        }
                    ]
                }
            ]
        },
        {
            "id": 7,
            "categoryName": "Toys",
            "categoryImage": "http://188.166.228.50/europet-img/image-3.png",
            "categoryDescription": "Lorem Ipsum is simply dummy text of the printing and typesetting industry. Lorem Ipsum has been the industry's standard dummy text ever since the 1500s",
            "activeStatus": 1,
            "subcategory": []
        },
        {
            "id": 6,
            "categoryName": "Toys E",
            "categoryImage": "https://gentlycarepyra2.s3.ap-south-1.amazonaws.com/981cc4d9-afef-40b3-8aad-f085743061afmll-adult-1-optimiz.png",
            "categoryDescription": "Lorem Ipsum is simply dummy text of the printing and typesetting industry. Lorem Ipsum has been the industry's standard dummy text ever since the 1500s",
            "activeStatus": 1,
            "subcategory": []
        },
        {
            "id": 5,
            "categoryName": "Pet Accessories",
            "categoryImage": "https://gentlycarepyra2.s3.ap-south-1.amazonaws.com/90d0bea8-92c2-48a2-b94c-6239bb98a7c6atta-cat-product-packaging1.png",
            "categoryDescription": "Lorem Ipsum is simply dummy text of the printing and typesetting industry. Lorem Ipsum has been the industry's standard dummy text ever since the 1500s",
            "activeStatus": 1,
            "subcategory": []
        },
        {
            "id": 4,
            "categoryName": "HealthCare",
            "categoryImage": "https://gentlycarepyra2.s3.ap-south-1.amazonaws.com/a2108222-1b2f-4f92-8d4e-22e0b45ce68c148705_MAIN._AC_SL1500_V1528214534_.png",
            "categoryDescription": "Lorem Ipsum is simply dummy text of the printing and typesetting industry. Lorem Ipsum has been the industry's standard dummy text ever since the 1500s",
            "activeStatus": 1,
            "subcategory": []
        },
        {
            "id": 3,
            "categoryName": "Wet Dog Food",
            "categoryImage": "https://gentlycarepyra2.s3.ap-south-1.amazonaws.com/6947209b-c7b3-40bf-8b38-fb6898adc147Buckley-Liberty-Fresh-Chicken-Recipe.png",
            "categoryDescription": "Lorem Ipsum is simply dummy text of the printing and typesetting industry. Lorem Ipsum has been the industry's standard dummy text ever since the 1500s",
            "activeStatus": 1,
            "subcategory": []
        },
        {
            "id": 2,
            "categoryName": "Wet Cat Food",
            "categoryImage": "https://gentlycarepyra2.s3.ap-south-1.amazonaws.com/1f2fd5f6-c238-459c-9958-80a10284b28eadvanced-pet.png",
            "categoryDescription": "Lorem Ipsum is simply dummy text of the printing and typesetting industry. Lorem Ipsum has been the industry's standard dummy text ever since the 1500s",
            "activeStatus": 1,
            "subcategory": [
                {
                    "id": 14,
                    "categoryId": 2,
                    "discount": 3,
                    "subCategoryName": "new 1",
                    "subCategoryImage": "https://images-na.ssl-images-amazon.com/images/I/71bMoQXPDSL._SY355_.jpg",
                    "subCategoryDescription": "",
                    "activeStatus": 1,
                    "products": [
                        {
                            "id": 8,
                            "productName": "Vitapol Karma Food for Budgies(500 GM)",
                            "productImage": "http://188.166.228.50/europet-img/product2.png",
                            "subcategoryId": 14,
                            "productCode": "876",
                            "discount": 0
                        },
                        {
                            "id": 9,
                            "productName": "Pet Drinks",
                            "productImage": "http://188.166.228.50/europet-img/product2.png",
                            "subcategoryId": 14,
                            "productCode": "89768",
                            "discount": 0
                        },
                        {
                            "id": 43,
                            "productName": "Super Bite Fine Natural Snack Chicken Chips for Dogs 70 gm",
                            "productImage": "https://gentlycarepyra2.s3.ap-south-1.amazonaws.com/234e178b-a127-4cd7-854b-0cd084d2b4b9image%204.png",
                            "subcategoryId": 14,
                            "productCode": "CODE876",
                            "discount": 0
                        }
                    ]
                },
                {
                    "id": 15,
                    "categoryId": 2,
                    "discount": 3,
                    "subCategoryName": "new 1",
                    "subCategoryImage": "https://images-na.ssl-images-amazon.com/images/I/71bMoQXPDSL._SY355_.jpg",
                    "subCategoryDescription": "",
                    "activeStatus": 1,
                    "products": []
                }
            ]
        },
        {
            "id": 1,
            "categoryName": "Pet Drinks",
            "categoryImage": "http://188.166.228.50/europet-img/image%204.png",
            "categoryDescription": "Lorem Ipsum is simply dummy text of the printing and typesetting industry. Lorem Ipsum has been the industry's standard dummy text ever since the 1500s",
            "activeStatus": 1,
            "subcategory": [
                {
                    "id": 1,
                    "categoryId": 1,
                    "discount": 10,
                    "subCategoryName": "name 11",
                    "subCategoryImage": "https://images-na.ssl-images-amazon.com/images/I/71bMoQXPDSL._SY355_.jpg",
                    "subCategoryDescription": "Lorem Ipsum is simply dummy text of the printing and typesetting industry. Lorem Ipsum has been the industry's standard dummy text ever since the 1500s",
                    "activeStatus": 1,
                    "products": [
                        {
                            "id": 1,
                            "productName": "Pedigree Puppy Dry Dog Food, Chicken & Milk, 400g",
                            "productImage": "http://188.166.228.50/europet-img/product2.png",
                            "subcategoryId": 1,
                            "productCode": "3142",
                            "discount": 0
                        },
                        {
                            "id": 2,
                            "productName": "Pedigree Puppy Dry Dog Food, Chicken & Milk, 400g",
                            "productImage": "http://188.166.228.50/europet-img/image%20-1.png",
                            "subcategoryId": 1,
                            "productCode": "3434",
                            "discount": 0
                        },
                        {
                            "id": 3,
                            "productName": "Pedigree Puppy Dry Dog Food, Chicken & Milk, 400g",
                            "productImage": "http://188.166.228.50/europet-img/product2.png",
                            "subcategoryId": 1,
                            "productCode": "4343",
                            "discount": 0
                        },
                        {
                            "id": 23,
                            "productName": "Hill's Science Diet Puppy Chicken & Barley Entre Canned Food",
                            "productImage": "https://gentlycarepyra2.s3.ap-south-1.amazonaws.com/93a882ab-c62c-42b3-bc8f-3a79c68c2165image%201.png",
                            "subcategoryId": 1,
                            "productCode": "CODE8786",
                            "discount": 0
                        },
                        {
                            "id": 36,
                            "productName": "Product E",
                            "productImage": "https://gentlycarepyra2.s3.ap-south-1.amazonaws.com/08a663c0-a1b7-4dda-84c3-5e0d004f2447114155_MAIN._AC_SL400_V1562961138_.jpg",
                            "subcategoryId": 1,
                            "productCode": "86786",
                            "discount": 0
                        },
                        {
                            "id": 85,
                            "productName": "Product C",
                            "productImage": "https://gentlycarepyra2.s3.ap-south-1.amazonaws.com/ce349dab-41e8-47d4-9003-ca9046b60b56image%201.png",
                            "subcategoryId": 1,
                            "productCode": "CD87676",
                            "discount": 0
                        }
                    ]
                },
                {
                    "id": 2,
                    "categoryId": 1,
                    "discount": 0,
                    "subCategoryName": "sub-category 8",
                    "subCategoryImage": "https://images-na.ssl-images-amazon.com/images/I/71bMoQXPDSL._SY355_.jpg",
                    "subCategoryDescription": "Lorem Ipsum is simply dummy text of the printing and typesetting industry. Lorem Ipsum has been the industry's standard dummy text ever since the 1500s",
                    "activeStatus": 1,
                    "products": []
                },
                {
                    "id": 3,
                    "categoryId": 1,
                    "discount": 0,
                    "subCategoryName": "sub-category",
                    "subCategoryImage": "http://188.166.228.50/europet-img/image-3.png",
                    "subCategoryDescription": "Lorem Ipsum is simply dummy text of the printing and typesetting industry. Lorem Ipsum has been the industry's standard dummy text ever since the 1500s",
                    "activeStatus": 1,
                    "products": []
                },
                {
                    "id": 4,
                    "categoryId": 1,
                    "discount": 0,
                    "subCategoryName": "sub-category",
                    "subCategoryImage": "http://188.166.228.50/europet-img/image-3.png",
                    "subCategoryDescription": "Lorem Ipsum is simply dummy text of the printing and typesetting industry. Lorem Ipsum has been the industry's standard dummy text ever since the 1500s",
                    "activeStatus": 1,
                    "products": []
                }
            ]
        }
    ]
}